{
  "root": "apps/yazta-client",
  "sourceRoot": "apps/yazta-client/src",
  "projectType": "application",
  "targets": {
    "start": {
      "executor": "@nrwl/react-native:start",
      "options": {
        "port": 8081
      }
    },
    "serve": {
      "executor": "@nrwl/workspace:run-commands",
      "options": {
        "command": "nx start yazta-client"
      }
    },
    "run-ios": {
      "executor": "@nrwl/react-native:run-ios",
      "options": {}
    },
    "bundle-ios": {
      "executor": "@nrwl/react-native:bundle",
      "outputs": ["apps/yazta-client/build"],
      "options": {
        "entryFile": "apps/yazta-client/src/main.tsx",
        "platform": "ios",
        "bundleOutput": "dist/apps/yazta-client/ios/main.jsbundle"
      }
    },
    "run-android": {
      "executor": "@nrwl/react-native:run-android",
      "options": {}
    },
    "build-android": {
      "executor": "@nrwl/react-native:build-android",
      "outputs": [
        "apps/yazta-client/android/app/build/outputs/bundle",
        "apps/yazta-client/android/app/build/outputs/apk"
      ],
      "options": {}
    },
    "bundle-android": {
      "executor": "@nrwl/react-native:bundle",
      "options": {
        "entryFile": "apps/yazta-client/src/main.tsx",
        "platform": "android",
        "bundleOutput": "dist/apps/yazta-client/android/main.jsbundle"
      }
    },
    "sync-deps": {
      "executor": "@nrwl/react-native:sync-deps",
      "options": {}
    },
    "ensure-symlink": {
      "executor": "@nrwl/react-native:ensure-symlink",
      "options": {}
    },
    "lint": {
      "executor": "@nrwl/linter:eslint",
      "outputs": ["{options.outputFile}"],
      "options": {
        "lintFilePatterns": ["apps/yazta-client/**/*.{ts,tsx,js,jsx}"]
      }
    },
    "test": {
      "executor": "@nrwl/jest:jest",
      "outputs": ["coverage/apps/yazta-client"],
      "options": {
        "jestConfig": "apps/yazta-client/jest.config.js",
        "passWithNoTests": true
      }
    }
  },
  "tags": []
}
